[
  {
    "id": "candles",
    "displayName": "Four Candles",
    "isOnList": false,
    "items": [
      {
        "name": "Four Candles",
        "price": "2.50",
        "points": "2",
        "image": "candles/four_candles.jpg"
      },
      {
        "name": "Fork Handles",
        "price": "10.00",
        "points": "-2",
        "image": "candles/fork_handles.png"
      }
    ]
  },
  {
    "id": "cheese",
    "displayName": "Cheddar",
    "isOnList": true,
    "items": [
      {
        "name": "Cheddar Cheese",
        "price": "1.50",
        "points": "2",
        "image": "cheese/cheese_cheap_cheddar.jpg"
      },
      {
        "name": "Premium Cheddar Cheese",
        "price": "2.50",
        "points": "1",
        "image": "cheese/cheese_cheddar.jpg"
      },
      {
        "name": "Swiss Cheese",
        "price": "2.00",
        "points": "-1",
        "image": "cheese/cheese_swiss.jpg"
      },
      {
        "name": "Stilton Cheese",
        "price": "2.50",
        "points": "-2",
        "image": "cheese/cheese_stilton.jpg"
      },
      {
        "name": "All the Cheese!",
        "price": "25.00",
        "points": "20",
        "image": "cheese/cheese_all.jpg"
      }
    ]
  },
  {
    "id": "banana",
    "displayName": "6 Bananas",
    "isOnList": true,
    "items": [
      {
        "name": "6 Loose bananas",
        "points": "2",
        "price": "0.80",
        "image":"bananas/bananas_loose.jpg"
      },
      {
        "name": "6 Bagged bananas",
        "points": "1",
        "price": "1.10",
        "image":"bananas/bananas_bagged.jpg"
      },
      {
        "name": "6 Premium bananas",
        "points": "-1",
        "price": "1.40",
        "image":"bananas/bananas_premium.jpg"
      },
      {
        "name": "6 Pre peeled bananas",
        "points": "-2",
        "price": "2.10",
        "image":"bananas/peeledNarna.jpg"
      }
    ]
  },
  {
    "id": "egg",
    "displayName": "6 Eggs",
    "isOnList": true,
    "items": [
      {
        "name": "6 Free Range Eggs",
        "points": "2",
        "price": "0.89",
        "image":"eggs/6eggs.jpg"
      },
      {
        "name": "6 Premium Free Range Eggs",
        "points": "1",
        "price": "1.50",
        "image":"eggs/6eggs.jpg"
      },
      {
        "name": "12 Free Range Eggs",
        "points": "-1",
        "price": "1.50",
        "image":"eggs/Dozen-eggs.jpg"
      },
      {
        "name": "12 Premium Free Range Eggs",
        "points": "-2",
        "price": "2.50",
        "image":"eggs/Dozen-eggs.jpg"
      }
    ]
  },
  {
    "id": "milk",
    "displayName": "4 Pints of Milk",
    "isOnList": true,
    "items": [
      {
        "name": "4 Pints of Milk",
        "points": "2",
        "price": "1.00",
        "image":"milk/4pintMilk.jpg"
      },
      {
        "name": "2 Litres of Milk",
        "points": "1",
        "price": "1.00",
        "image":"milk/2litreMilk.jpg"
      },
      {
        "name": "6 Pints of Milk",
        "points": "-2",
        "price": "1.40",
        "image":"milk/6pintMilk.jpg"
      },
      {
        "name": "1 Pint of Milk",
        "points": "-1",
        "price": "0.75",
        "image":"milk/1pintMilk.jpg"
      }
    ]
  }
]
